<?xml version="1.0" encoding="UTF-8"?>
<svg width="44px" height="29px" viewBox="0 0 44 29" version="1.1" xmlns="http://www.w3.org/2000/svg" xmlns:xlink="http://www.w3.org/1999/xlink">
    <!-- Generator: Sketch 46.2 (44496) - http://www.bohemiancoding.com/sketch -->
    <title>Artboard 2</title>
    <desc>Created with Sketch.</desc>
    <defs></defs>
    <g id="Examples-v2" stroke="none" stroke-width="1" fill="none" fill-rule="evenodd">
        <g id="Artboard-2">
            <path d="M40.3333333,29 L3.66666667,29 C1.64144444,29 0,27.3772083 0,25.375 L0,3.625 C0,1.62279167 1.64144444,0 3.66666667,0 L40.3333333,0 C42.3585556,0 44,1.62279167 44,3.625 L44,25.375 C44,27.3772083 42.3585556,29 40.3333333,29 Z" id="shape" fill="#1D91CE"></path>
            <polygon id="shape" fill="#FFFFFF" points="8.42238157e-17 19.8421053 8.42238157e-17 17.7933261 4.09456034 9.15789474 16.1951609 9.15789474 17.4170776 11.5182834 18.5576638 9.15789474 34.8707902 9.15789474 36.2651667 10.624919 37.762431 9.15789474 44 9.15789474 44 10.4844046 39.9593333 14.4876721 44 18.6909102 44 19.8421053 37.7741897 19.8421053 36.1338621 18.2690607 34.5082328 19.8421053 8.33942241 19.8421053 7.55159483 18.1564656 6.16505747 18.1564656 5.44778161 19.8421053 0 19.8421053"></polygon>
            <path d="M7.55159483,18.2725439 L6.16505747,18.2725439 L7.55159483,18.2725439 Z M23.0621954,10.6842105 L21.1024253,10.6842105 L19.877569,10.6842105 L17.4788103,15.804152 L14.9095517,10.6842105 L13.6758764,10.6842105 L11.7161063,10.6842105 L11.7161063,18.0842982 L8.41487356,10.6842105 L5.42426437,10.6842105 L1.91725575,18.3157895 L4.06614368,18.3157895 L4.78341954,16.5766374 L8.88717816,16.5766374 L9.67500575,18.3157895 L11.7161063,18.3157895 L11.8189943,18.3157895 L13.6758764,18.3157895 L13.6758764,12.1028363 L16.4607098,18.3157895 L18.3058333,18.3157895 L21.1024253,12.1969591 L21.1024253,18.3157895 L23.0621954,18.3157895 L23.0621954,10.6842105 Z M36.2132328,13.1627778 L33.9271609,10.6842105 L31.4166954,10.6842105 L26.7749799,10.6842105 L24.8152098,10.6842105 L24.8152098,18.3157895 L26.7749799,18.3157895 L31.4166954,18.3157895 L33.6145776,18.3157895 L36.1289626,15.8066959 L38.6649052,18.3157895 L41.0087902,18.3157895 L37.4175115,14.4609942 L41.112658,10.6842105 L38.6649052,10.6842105 L36.2132328,13.1627778 Z M31.4166954,16.7699708 L26.7749799,16.7699708 L26.7749799,15.1274854 L31.4166954,15.1274854 L31.4166954,13.5825146 L26.7749799,13.5825146 L26.7749799,12.2300292 L31.4166954,12.2300292 L31.4166954,10.930117 L34.8590316,14.3948538 L31.4166954,17.8773977 L31.4166954,16.7699708 Z M6.86763506,11.9400292 L8.2090977,15.0308187 L5.42426437,15.0308187 L6.86763506,11.9400292 Z" id="shape" fill="#1D91CE"></path>
        </g>
    </g>
</svg>