<?xml version="1.0" encoding="utf-8"?>
<!-- Generator: Adobe Illustrator 16.0.0, SVG Export Plug-In . SVG Version: 6.00 Build 0)  -->
<!DOCTYPE svg PUBLIC "-//W3C//DTD SVG 1.1//EN" "http://www.w3.org/Graphics/SVG/1.1/DTD/svg11.dtd">
<svg version="1.1" xmlns="http://www.w3.org/2000/svg" xmlns:xlink="http://www.w3.org/1999/xlink" x="0px" y="0px" width="853.5px"
	 height="285.167px" viewBox="0 0 853.5 285.167" enable-background="new 0 0 853.5 285.167" xml:space="preserve">
<g id="Layer_1">
</g>
<g id="card_items">
	<g id="single_card">
		<rect x="33" y="20" fill="#F1F2F2" width="183.333" height="245.333"/>
		<text transform="matrix(1 0 0 1 55.1938 50)" display="none" font-family="'MyriadPro-Regular'" font-size="12">Unit Street/Avenue Address</text>
		<text transform="matrix(1 0 0 1 71.4023 76)" display="none" font-family="'MyriadPro-Regular'" font-size="12">City, State, ZIP Code</text>
		<rect x="48.167" y="101.333" fill="#D1D3D4" width="152.167" height="114.667"/>
		<rect x="39.167" y="247" fill="#D1D3D4" width="54.5" height="10.334"/>
		<rect x="97.417" y="247" fill="#D1D3D4" width="54.5" height="10.334"/>
		<rect x="155.667" y="247" fill="#D1D3D4" width="54.5" height="10.334"/>
		<path fill="#D1D3D4" d="M76.583,241c0,1.104-0.896,2-2,2H58.25c-1.104,0-2-0.896-2-2v-14.666c0-1.104,0.896-2,2-2h16.333
			c1.104,0,2,0.896,2,2V241z"/>
		<path fill="#D1D3D4" d="M134.833,241c0,1.104-0.896,2-2,2H116.5c-1.104,0-2-0.896-2-2v-14.666c0-1.104,0.896-2,2-2h16.333
			c1.104,0,2,0.896,2,2V241z"/>
		<path fill="#D1D3D4" d="M193.083,241c0,1.104-0.896,2-2,2H174.75c-1.104,0-2-0.896-2-2v-14.666c0-1.104,0.896-2,2-2h16.333
			c1.104,0,2,0.896,2,2V241z"/>
		<path fill="#D1D3D4" d="M200.333,49.75c0,1.427-0.896,2.583-2,2.583H50.167c-1.104,0-2-1.157-2-2.583v-15.5
			c0-1.427,0.896-2.583,2-2.583h148.167c1.104,0,2,1.157,2,2.583V49.75z"/>
		<path fill="#D1D3D4" d="M200.333,68c0,1.104-0.896,2-2,2H50.167c-1.104,0-2-0.896-2-2v-6c0-1.104,0.896-2,2-2h148.167
			c1.104,0,2,0.896,2,2V68z"/>
		<path fill="#D1D3D4" d="M121.667,89.333c0,1.104-0.896,2-2,2h-69.5c-1.104,0-2-0.896-2-2v-8.667c0-1.104,0.896-2,2-2h69.5
			c1.104,0,2,0.896,2,2V89.333z"/>
		<path fill="#D1D3D4" d="M128,89.333c0,1.104,0.896,2,2,2h68.333c1.104,0,2-0.896,2-2v-8.667c0-1.104-0.896-2-2-2H130
			c-1.104,0-2,0.896-2,2V89.333z"/>
	</g>
	<g id="single_card_1_">
		<rect x="234" y="20" fill="#F1F2F2" width="183.333" height="245.333"/>
		<text transform="matrix(1 0 0 1 256.1938 49.9995)" display="none" font-family="'MyriadPro-Regular'" font-size="12">Unit Street/Avenue Address</text>
		<text transform="matrix(1 0 0 1 272.4023 75.9995)" display="none" font-family="'MyriadPro-Regular'" font-size="12">City, State, ZIP Code</text>
		<rect x="249.167" y="101.333" fill="#D1D3D4" width="152.167" height="114.666"/>
		<rect x="240.167" y="247" fill="#D1D3D4" width="54.5" height="10.334"/>
		<rect x="298.417" y="247" fill="#D1D3D4" width="54.5" height="10.334"/>
		<rect x="356.667" y="247" fill="#D1D3D4" width="54.5" height="10.334"/>
		<path fill="#D1D3D4" d="M277.583,240.999c0,1.105-0.896,2-2,2H259.25c-1.104,0-2-0.895-2-2v-14.666c0-1.104,0.896-2,2-2h16.333
			c1.104,0,2,0.896,2,2V240.999z"/>
		<path fill="#D1D3D4" d="M335.833,240.999c0,1.105-0.896,2-2,2H317.5c-1.104,0-2-0.895-2-2v-14.666c0-1.104,0.896-2,2-2h16.333
			c1.104,0,2,0.896,2,2V240.999z"/>
		<path fill="#D1D3D4" d="M394.083,240.999c0,1.105-0.896,2-2,2H375.75c-1.104,0-2-0.895-2-2v-14.666c0-1.104,0.896-2,2-2h16.333
			c1.104,0,2,0.896,2,2V240.999z"/>
		<path fill="#D1D3D4" d="M401.333,49.749c0,1.427-0.896,2.583-2,2.583H251.167c-1.104,0-2-1.157-2-2.583v-15.5
			c0-1.427,0.896-2.583,2-2.583h148.167c1.104,0,2,1.157,2,2.583V49.749z"/>
		<path fill="#D1D3D4" d="M401.333,68c0,1.104-0.896,2-2,2H251.167c-1.104,0-2-0.896-2-2v-6c0-1.104,0.896-2,2-2h148.167
			c1.104,0,2,0.896,2,2V68z"/>
		<path fill="#D1D3D4" d="M322.667,89.333c0,1.104-0.896,2-2,2h-69.5c-1.104,0-2-0.896-2-2v-8.667c0-1.104,0.896-2,2-2h69.5
			c1.104,0,2,0.896,2,2V89.333z"/>
		<path fill="#D1D3D4" d="M329,89.333c0,1.104,0.896,2,2,2h68.333c1.104,0,2-0.896,2-2v-8.667c0-1.104-0.896-2-2-2H331
			c-1.104,0-2,0.896-2,2V89.333z"/>
	</g>
	<g id="single_card_2_">
		<rect x="436" y="20" fill="#F1F2F2" width="183.334" height="245.333"/>
		<text transform="matrix(1 0 0 1 458.1934 50.0005)" display="none" font-family="'MyriadPro-Regular'" font-size="12">Unit Street/Avenue Address</text>
		<text transform="matrix(1 0 0 1 474.4023 76.0005)" display="none" font-family="'MyriadPro-Regular'" font-size="12">City, State, ZIP Code</text>
		<rect x="451.167" y="101.333" fill="#D1D3D4" width="152.167" height="114.666"/>
		<rect x="442.167" y="247.001" fill="#D1D3D4" width="54.5" height="10.334"/>
		<rect x="500.417" y="247.001" fill="#D1D3D4" width="54.5" height="10.334"/>
		<rect x="558.667" y="247.001" fill="#D1D3D4" width="54.5" height="10.334"/>
		<path fill="#D1D3D4" d="M479.584,241c0,1.105-0.896,2-2,2H461.25c-1.104,0-2-0.895-2-2v-14.666c0-1.104,0.896-2,2-2h16.334
			c1.104,0,2,0.896,2,2V241z"/>
		<path fill="#D1D3D4" d="M537.834,241c0,1.105-0.896,2-2,2H519.5c-1.104,0-2-0.895-2-2v-14.666c0-1.104,0.896-2,2-2h16.334
			c1.104,0,2,0.896,2,2V241z"/>
		<path fill="#D1D3D4" d="M596.084,241c0,1.105-0.896,2-2,2H577.75c-1.104,0-2-0.895-2-2v-14.666c0-1.104,0.896-2,2-2h16.334
			c1.104,0,2,0.896,2,2V241z"/>
		<path fill="#D1D3D4" d="M603.334,49.75c0,1.427-0.896,2.583-2,2.583H453.167c-1.104,0-2-1.157-2-2.583v-15.5
			c0-1.427,0.896-2.583,2-2.583h148.167c1.104,0,2,1.157,2,2.583V49.75z"/>
		<path fill="#D1D3D4" d="M603.334,68c0,1.104-0.896,2-2,2H453.167c-1.104,0-2-0.896-2-2v-6c0-1.104,0.896-2,2-2h148.167
			c1.104,0,2,0.896,2,2V68z"/>
		<path fill="#D1D3D4" d="M524.667,89.333c0,1.104-0.896,2-2,2h-69.5c-1.104,0-2-0.896-2-2v-8.667c0-1.104,0.896-2,2-2h69.5
			c1.104,0,2,0.896,2,2V89.333z"/>
		<path fill="#D1D3D4" d="M531,89.333c0,1.104,0.896,2,2,2h68.334c1.104,0,2-0.896,2-2v-8.667c0-1.104-0.896-2-2-2H533
			c-1.104,0-2,0.896-2,2V89.333z"/>
	</g>
	<g id="single_card_3_">
		<rect x="638.166" y="20" fill="#F1F2F2" width="183.334" height="245.333"/>
		<text transform="matrix(1 0 0 1 660.3594 50.0005)" display="none" font-family="'MyriadPro-Regular'" font-size="12">Unit Street/Avenue Address</text>
		<text transform="matrix(1 0 0 1 676.5684 76.0005)" display="none" font-family="'MyriadPro-Regular'" font-size="12">City, State, ZIP Code</text>
		<rect x="653.333" y="101.333" fill="#D1D3D4" width="152.167" height="114.666"/>
		<rect x="644.333" y="247.001" fill="#D1D3D4" width="54.5" height="10.334"/>
		<rect x="702.583" y="247.001" fill="#D1D3D4" width="54.5" height="10.334"/>
		<rect x="760.833" y="247.001" fill="#D1D3D4" width="54.5" height="10.334"/>
		<path fill="#D1D3D4" d="M681.75,241c0,1.105-0.896,2-2,2h-16.334c-1.104,0-2-0.895-2-2v-14.666c0-1.104,0.896-2,2-2h16.334
			c1.104,0,2,0.896,2,2V241z"/>
		<path fill="#D1D3D4" d="M740,241c0,1.105-0.896,2-2,2h-16.334c-1.104,0-2-0.895-2-2v-14.666c0-1.104,0.896-2,2-2H738
			c1.104,0,2,0.896,2,2V241z"/>
		<path fill="#D1D3D4" d="M798.25,241c0,1.105-0.896,2-2,2h-16.334c-1.104,0-2-0.895-2-2v-14.666c0-1.104,0.896-2,2-2h16.334
			c1.104,0,2,0.896,2,2V241z"/>
		<path fill="#D1D3D4" d="M805.5,49.75c0,1.427-0.896,2.583-2,2.583H655.333c-1.104,0-2-1.157-2-2.583v-15.5
			c0-1.427,0.896-2.583,2-2.583H803.5c1.104,0,2,1.157,2,2.583V49.75z"/>
		<path fill="#D1D3D4" d="M805.5,68c0,1.104-0.896,2-2,2H655.333c-1.104,0-2-0.896-2-2v-6c0-1.104,0.896-2,2-2H803.5
			c1.104,0,2,0.896,2,2V68z"/>
		<path fill="#D1D3D4" d="M726.833,89.333c0,1.104-0.896,2-2,2h-69.5c-1.104,0-2-0.896-2-2v-8.667c0-1.104,0.896-2,2-2h69.5
			c1.104,0,2,0.896,2,2V89.333z"/>
		<path fill="#D1D3D4" d="M733.166,89.333c0,1.104,0.896,2,2,2H803.5c1.104,0,2-0.896,2-2v-8.667c0-1.104-0.896-2-2-2h-68.334
			c-1.104,0-2,0.896-2,2V89.333z"/>
	</g>
</g>
<g id="navigation" display="none">
	<circle display="inline" fill="#A7A9AC" cx="29" cy="133.667" r="25"/>
	<polygon display="inline" fill="#FFFFFF" points="30.193,142.419 22.938,133.667 30.193,124.914 32.852,127.173 27.47,133.667 
		32.899,140.216 	"/>
	<circle display="inline" fill="#A7A9AC" cx="824.5" cy="133.667" r="25"/>
	<polygon display="inline" fill="#FFFFFF" points="823.307,124.914 830.563,133.667 823.307,142.419 820.648,140.16 826.03,133.667 
		820.601,127.117 	"/>
</g>
<g id="Layer_4">
</g>
</svg>
